%YAML 1.1
%TAG !u! tag:unity3d.com,2011:
--- !u!74 &7400000
AnimationClip:
  m_ObjectHideFlags: 0
  m_CorrespondingSourceObject: {fileID: 0}
  m_PrefabInstance: {fileID: 0}
  m_PrefabAsset: {fileID: 0}
  m_Name: enemyattack
  serializedVersion: 6
  m_Legacy: 0
  m_Compressed: 0
  m_UseHighQualityCurve: 1
  m_RotationCurves: []
  m_CompressedRotationCurves: []
  m_EulerCurves: []
  m_PositionCurves: []
  m_ScaleCurves: []
  m_FloatCurves: []
  m_PPtrCurves:
  - curve:
    - time: 0
      value: {fileID: 21300000, guid: 1de6b9d6326ef7c42a724b18b430bff4, type: 3}
    - time: 0.16666667
      value: {fileID: 21300000, guid: dc61eafb7cb508746ae150a792c3fb57, type: 3}
    - time: 0.33333334
      value: {fileID: 21300000, guid: 59912e8b5b4aede4d998bd36ec2a6538, type: 3}
    - time: 0.5
      value: {fileID: 21300000, guid: 21a187aa1b243524a95f17339f29d6b5, type: 3}
    - time: 0.6666667
      value: {fileID: 21300000, guid: 484f002a0017f244dbfe315ca94e23bf, type: 3}
    - time: 0.8333333
      value: {fileID: 21300000, guid: de362f8f4548dec4faa86380bd9e23a6, type: 3}
    - time: 1
      value: {fileID: 21300000, guid: 3f92322841a4f9a48b7ae9a8ed659782, type: 3}
    attribute: m_Sprite
    path: 
    classID: 212
    script: {fileID: 0}
  m_SampleRate: 60
  m_WrapMode: 0
  m_Bounds:
    m_Center: {x: 0, y: 0, z: 0}
    m_Extent: {x: 0, y: 0, z: 0}
  m_ClipBindingConstant:
    genericBindings:
    - serializedVersion: 2
      path: 0
      attribute: 0
      script: {fileID: 0}
      typeID: 212
      customType: 23
      isPPtrCurve: 1
    pptrCurveMapping:
    - {fileID: 21300000, guid: 1de6b9d6326ef7c42a724b18b430bff4, type: 3}
    - {fileID: 21300000, guid: dc61eafb7cb508746ae150a792c3fb57, type: 3}
    - {fileID: 21300000, guid: 59912e8b5b4aede4d998bd36ec2a6538, type: 3}
    - {fileID: 21300000, guid: 21a187aa1b243524a95f17339f29d6b5, type: 3}
    - {fileID: 21300000, guid: 484f002a0017f244dbfe315ca94e23bf, type: 3}
    - {fileID: 21300000, guid: de362f8f4548dec4faa86380bd9e23a6, type: 3}
    - {fileID: 21300000, guid: 3f92322841a4f9a48b7ae9a8ed659782, type: 3}
  m_AnimationClipSettings:
    serializedVersion: 2
    m_AdditiveReferencePoseClip: {fileID: 0}
    m_AdditiveReferencePoseTime: 0
    m_StartTime: 0
    m_StopTime: 1.0166667
    m_OrientationOffsetY: 0
    m_Level: 0
    m_CycleOffset: 0
    m_HasAdditiveReferencePose: 0
    m_LoopTime: 1
    m_LoopBlend: 0
    m_LoopBlendOrientation: 0
    m_LoopBlendPositionY: 0
    m_LoopBlendPositionXZ: 0
    m_KeepOriginalOrientation: 0
    m_KeepOriginalPositionY: 1
    m_KeepOriginalPositionXZ: 0
    m_HeightFromFeet: 0
    m_Mirror: 0
  m_EditorCurves: []
  m_EulerEditorCurves: []
  m_HasGenericRootTransform: 0
  m_HasMotionFloatCurves: 0
  m_Events: []
